<?xml version="1.0" encoding="UTF-8" standalone="no"?>
<!-- Generator: Adobe Illustrator 16.0.0, SVG Export Plug-In . SVG Version: 6.00 Build 0)  -->

<svg
   xmlns:dc="http://purl.org/dc/elements/1.1/"
   xmlns:cc="http://creativecommons.org/ns#"
   xmlns:rdf="http://www.w3.org/1999/02/22-rdf-syntax-ns#"
   xmlns:svg="http://www.w3.org/2000/svg"
   xmlns="http://www.w3.org/2000/svg"
   xmlns:sodipodi="http://sodipodi.sourceforge.net/DTD/sodipodi-0.dtd"
   xmlns:inkscape="http://www.inkscape.org/namespaces/inkscape"
   version="1.1"
   id="Layer_1"
   x="0px"
   y="0px"
   width="1455px"
   height="555px"
   viewBox="0 0 1455 555"
   enable-background="new 0 0 1455 555"
   xml:space="preserve"
   inkscape:version="0.91 r13725"
   sodipodi:docname="aged_logo.svg"><metadata
     id="metadata25"><rdf:RDF><cc:Work
         rdf:about=""><dc:format>image/svg+xml</dc:format><dc:type
           rdf:resource="http://purl.org/dc/dcmitype/StillImage" /></cc:Work></rdf:RDF></metadata><defs
     id="defs23" /><sodipodi:namedview
     pagecolor="#ffffff"
     bordercolor="#666666"
     borderopacity="1"
     objecttolerance="10"
     gridtolerance="10"
     guidetolerance="10"
     inkscape:pageopacity="0"
     inkscape:pageshadow="2"
     inkscape:window-width="1425"
     inkscape:window-height="819"
     id="namedview21"
     showgrid="false"
     inkscape:zoom="0.42611684"
     inkscape:cx="820.60635"
     inkscape:cy="54.337492"
     inkscape:window-x="0"
     inkscape:window-y="1"
     inkscape:window-maximized="0"
     inkscape:current-layer="Layer_1" /><path
     style="clip-rule:evenodd;fill-rule:evenodd;fill:#ffffff;fill-opacity:1;stroke:#000000;stroke-opacity:1"
     inkscape:connector-curvature="0"
     id="path5"
     d="m 1213.58,181.413 c 2.396,4.494 4.348,8.259 6.398,11.974 5.531,10.026 7.805,21.119 10.408,32.077 2.855,12.017 5.756,23.945 11.594,35.018 2.727,5.175 6.316,9.326 10.762,12.9 3.91,3.143 7.717,6.46 11.893,9.21 1.674,1.104 4.518,1.77 6.295,1.137 6.367,-2.278 12.482,-5.262 18.748,-7.836 2.441,-1.003 5.104,-2.412 7.539,-2.199 2.32,0.204 4.607,2.098 6.668,3.581 1.879,1.354 3.672,2.508 6.092,2.207 6.77,-0.842 8.488,3.095 10.16,7.87 1.002,2.866 1.949,5.765 3.174,8.537 0.348,0.789 1.562,1.662 2.408,1.691 9.605,0.333 19.213,0.543 28.824,0.668 0.795,0.01 1.967,-0.649 2.348,-1.34 3.537,-6.398 6.686,-13.023 10.432,-19.294 8.129,-13.606 16.434,-27.11 24.883,-40.52 4.59,-7.284 9.668,-14.26 14.443,-21.431 1.537,-2.31 3.168,-2.963 5.959,-2.008 2.68,0.917 5.645,1.029 8.494,1.43 2.154,0.304 3.121,2.329 1.918,4.102 -7.398,10.934 -14.932,21.778 -22.139,32.839 -5.861,8.991 -11.523,18.13 -16.898,27.419 -3.857,6.664 -7.023,13.725 -10.648,20.528 -1.711,3.214 -0.947,6.151 0.277,9.189 1.518,3.762 -0.332,6.494 -4.414,6.858 -2.846,0.252 -5.658,0.832 -8.496,1.152 -2.865,0.32 -5.742,0.502 -8.631,1.255 5.359,0.453 10.723,0.892 16.082,1.36 9.719,0.85 19.447,1.606 29.148,2.618 6.469,0.675 12.887,1.819 19.352,2.579 4.699,0.553 10.338,6.911 10.137,13.491 -0.137,4.412 -0.58,8.819 -0.584,13.229 -0.01,4.191 0.715,8.396 0.531,12.569 -0.426,9.767 -1.127,19.525 -1.865,29.275 -0.531,7.056 -1.053,14.129 -2.029,21.133 -1.166,8.341 -2.828,16.613 -4.246,24.921 -1.613,9.457 -3.309,18.904 -4.752,28.387 -1.061,6.965 -2.346,13.976 -2.434,20.981 -0.057,4.306 1.945,8.641 3.049,12.957 0.186,0.721 0.68,1.398 0.723,2.115 0.26,4.418 3.648,5.294 6.963,6.156 4.096,1.066 8.217,2.043 12.352,2.943 2.15,0.469 4.365,0.635 6.529,1.039 6.967,1.302 10.951,6.965 9.783,13.967 -0.148,0.902 -0.555,2.117 -1.232,2.515 -3.439,2.008 -6.834,4.739 -10.574,5.428 -5.059,0.932 -10.418,0.175 -15.648,0.268 -2.566,0.045 -5.127,0.391 -7.691,0.561 -0.857,0.058 -1.906,0.3 -2.555,-0.079 -4.49,-2.611 -9.146,-0.415 -13.676,-0.729 -7.898,-0.547 -15.35,2.831 -23.141,2.099 -4.957,-0.465 -9.854,-1.584 -14.781,-2.391 -2.789,-0.455 -3.559,-2.386 -3.631,-4.856 -0.256,-8.722 0.311,-17.353 1.807,-25.987 1.33,-7.683 1.777,-15.515 2.77,-23.261 1.17,-9.119 2.5,-18.219 3.775,-27.324 1.109,-7.922 2.156,-15.857 3.398,-23.76 0.662,-4.205 1.939,-8.323 2.469,-12.538 0.404,-3.225 0.307,-6.562 0.02,-9.812 -0.449,-5.087 -1.23,-10.145 -1.922,-15.207 -0.074,-0.558 -0.473,-1.071 -0.996,-2.199 -2.664,5.552 -4.906,10.693 -7.57,15.604 -1.92,3.542 -4.162,6.978 -6.699,10.104 -3.697,4.558 -8.4,5.55 -14.062,3.472 -3.215,-1.18 -6.797,-1.36 -11.137,-2.161 0.383,3.803 0.562,7.028 1.055,10.207 1.381,8.936 2.836,17.862 4.365,26.772 1.027,5.995 2.076,11.993 3.377,17.932 4.463,20.352 9.053,40.675 13.568,61.016 0.715,3.215 1.115,6.513 2.002,9.677 0.9,3.214 -1.256,4.057 -3.375,4.457 -4.092,0.773 -6.648,-1.1 -8.408,-5.987 -5.068,-14.071 -10.033,-28.18 -15.057,-42.268 -4.824,-13.534 -9.875,-26.992 -14.445,-40.611 -4.117,-12.267 -7.721,-24.705 -11.541,-37.07 -0.689,-2.234 -1.062,-4.618 -2.1,-6.669 -0.488,-0.962 -2.207,-1.833 -3.369,-1.834 -7.553,-0.019 -15.105,0.243 -22.66,0.356 -7.174,0.106 -14.352,0.077 -21.527,0.226 -6.578,0.136 -13.154,0.403 -19.73,0.661 -4.123,0.16 -8.268,0.208 -12.363,0.665 -5.598,0.627 -11.172,1.519 -16.721,2.491 -0.869,0.153 -1.945,1.197 -2.271,2.072 -3.129,8.345 -6.109,16.744 -9.143,25.124 -3.254,8.991 -6.504,17.983 -9.785,26.964 -4.701,12.877 -9.58,25.691 -14.104,38.632 -3.957,11.316 -7.564,22.754 -11.244,34.165 -1.588,4.924 -3.107,6.434 -6.998,6.403 -3.109,-0.026 -4.596,-1.756 -3.965,-4.938 1.037,-5.218 2.252,-10.402 3.346,-15.61 2.781,-13.231 5.609,-26.453 8.277,-39.706 1.828,-9.081 3.266,-18.243 5.156,-27.311 2.451,-11.771 5.201,-23.479 7.773,-35.225 0.387,-1.767 0.562,-3.586 0.742,-5.39 0.227,-2.284 -0.533,-3.852 -3.152,-3.818 -9.225,0.121 -11.73,-5.7 -13.619,-11.854 -2.607,-8.501 -4.588,-17.19 -6.898,-25.783 -4.189,-15.581 -8.582,-31.107 -12.596,-46.731 -3.891,-15.14 -7.432,-30.367 -11.092,-45.563 -2.463,-10.227 -4.619,-20.534 -7.363,-30.685 -2.072,-7.672 -5.162,-15.067 -7.238,-22.739 -2.41,-8.914 -4.379,-17.96 -6.207,-27.017 -1.244,-6.154 2.266,-11.796 8.359,-13.593 3.852,-1.135 7.902,-1.617 11.881,-2.301 4.691,-0.806 7.725,1.949 10.479,5.127 2.52,2.911 5.035,5.834 7.4,8.871 1.189,1.523 1.719,1.103 2.377,-0.318 1.607,-3.453 2.986,-7.054 4.955,-10.294 3.135,-5.158 6.518,-10.187 10.078,-15.063 7.139,-9.772 13.035,-20.262 18.014,-31.244 1.088,-2.403 0.621,-5.487 1.006,-8.239 0.387,-2.749 1.164,-5.457 1.371,-8.211 0.244,-3.257 -0.064,-6.554 0.09,-9.824 0.553,-11.663 3.49,-22.455 11.996,-31.034 2.539,-2.56 5.242,-4.966 7.971,-7.326 6.055,-5.243 13.385,-7.456 21.084,-6.701 4.658,0.457 9.244,2.744 13.619,4.743 8.799,4.021 16.215,9.988 22.496,17.335 4.109,4.804 8.436,9.681 8.627,16.358 0.094,3.203 -0.494,6.979 -2.188,9.572 -4.48,6.857 -6.742,14.421 -8.83,22.146 -1.014,3.747 -2.08,7.499 -3.467,11.116 -0.432,1.124 -1.859,2.251 -3.062,2.614 -2.582,0.783 -3.934,2.499 -4.463,4.877 -0.688,3.09 -2.248,5.248 -5.008,6.93 -1.643,1.004 -2.545,3.15 -4.049,4.477 -1.17,1.03 -2.721,2.154 -4.162,2.241 -3.188,0.188 -6.41,-0.352 -9.623,-0.397 -1.719,-0.021 -3.439,0.368 -5.795,0.646 z" /><path
     style="clip-rule:evenodd;fill-rule:evenodd;fill:#ffffff;fill-opacity:1;stroke:#000000;stroke-opacity:1"
     inkscape:connector-curvature="0"
     id="path9"
     d="m 447.508,162.827 c 0,4.361 -0.546,8.262 0.17,11.916 0.588,2.998 2.46,5.839 4.148,8.506 3.051,4.821 4.52,10.087 4.722,15.667 0.225,6.202 0.375,12.439 -0.024,18.625 -0.555,8.614 3.401,14.597 10.221,18.992 5.813,3.745 11.882,7.09 17.781,10.708 1.802,1.104 3.323,2.672 5.128,3.776 7.421,4.545 14.959,8.903 22.344,13.507 5.957,3.713 11.994,7.367 17.548,11.631 4.258,3.27 5.221,8.319 5.871,13.657 1.603,13.184 -6.416,21.625 -13.979,30.368 -1.774,2.051 -9.327,0.979 -9.868,-1.524 -0.499,-2.316 0.285,-5.062 1.033,-7.455 1.015,-3.254 2.283,-6.426 1.09,-9.826 -0.417,-1.189 -1.439,-2.164 -2.462,-3.634 -0.785,2.011 -1.235,3.396 -1.854,4.699 -1.246,2.622 -2.974,3.263 -5.059,1.453 -3.564,-3.094 -6.597,-6.284 -6.955,-11.753 -0.396,-6.044 -2.927,-11.481 -9.535,-13.746 -1.46,-0.5 -2.706,-1.683 -3.992,-2.63 -8.106,-5.967 -17.326,-9.865 -26.422,-13.92 -2.91,-1.296 -6.375,-1.486 -9.623,-1.792 -0.891,-0.083 -2.443,1.041 -2.801,1.958 -5.897,15.137 -11.694,30.315 -17.361,45.54 -0.464,1.248 -0.302,3.203 0.389,4.324 3.765,6.099 7.686,12.109 11.744,18.02 7.287,10.609 14.658,21.162 22.096,31.666 4.288,6.056 8.663,12.057 13.208,17.919 4.383,5.651 9.249,11.081 9.405,18.715 0.115,5.594 -0.053,11.231 -0.664,16.788 -0.722,6.565 -1.876,13.098 -3.171,19.578 -1.876,9.391 -4.065,18.717 -6.089,28.079 -2.108,9.756 -4.021,19.555 -3.601,29.601 0.218,5.232 0.712,10.46 1.31,15.662 0.565,4.91 4.905,6.555 8.427,8.478 6.329,3.456 12.75,6.59 20.135,7.774 6.297,1.008 10.972,5.626 15.189,10.23 2.299,2.51 1.247,5.339 -2.07,6.468 -2.5,0.852 -4.776,1.293 -7.688,0.374 -2.842,-0.897 -6.349,-0.102 -9.482,0.433 -4.181,0.713 -8.268,1.969 -12.429,2.816 -1.062,0.217 -2.259,-0.361 -3.389,-0.338 -5.203,0.104 -10.414,0.558 -15.604,0.378 -6.603,-0.227 -13.503,0.867 -19.113,-4.455 -2.417,-2.29 -3.393,-5.203 -3.008,-7.746 1.34,-8.837 -0.537,-17.17 -2.326,-25.685 -1.558,-7.408 -2.244,-15.009 -3.104,-22.55 -0.463,-4.056 -0.88,-8.187 -0.615,-12.237 0.439,-6.72 1.274,-13.426 2.251,-20.093 1.701,-11.613 3.655,-23.191 5.465,-34.789 0.626,-4.016 -1.381,-7.124 -3.961,-9.775 -6.387,-6.563 -12.597,-13.366 -19.526,-19.318 -5.534,-4.752 -12.021,-8.396 -18.091,-12.524 -1.112,-0.757 -2.255,-1.468 -4.253,-2.763 0.453,4.98 0.674,9.207 1.251,13.383 1.095,7.932 2.258,15.859 3.65,23.743 1.163,6.59 2.604,13.136 4.084,19.662 2.131,9.392 4.472,18.713 4.429,28.469 -0.013,2.964 -1.335,4.956 -3.492,5.896 -6.744,2.937 -13.55,5.866 -20.583,7.958 -4.844,1.44 -10.187,1.111 -15.158,2.235 -8.683,1.963 -17.361,4.087 -25.832,6.8 -7.361,2.358 -14.556,5.36 -21.553,8.653 -1.977,0.932 -3.488,3.688 -4.383,5.938 -3.132,7.876 -2.331,15.943 -0.507,24.005 0.775,3.422 1.058,6.968 1.995,10.338 1.381,4.979 3.12,9.859 4.756,14.766 1.044,3.13 -0.794,6.229 -4.12,6.774 -0.53,0.087 -1.094,0.105 -1.622,0.023 -7.131,-1.103 -14.555,-1.229 -20.87,-5.297 -1.607,-1.036 -3.194,-2.877 -3.727,-4.666 -1.879,-6.304 -3.368,-12.729 -4.851,-19.144 -0.575,-2.484 -0.963,-5.055 -1.057,-7.6 -0.316,-8.625 -0.579,-17.255 -0.628,-25.883 -0.029,-5.164 0.348,-10.332 0.603,-15.496 0.153,-3.086 1.891,-5.177 4.682,-6.181 8.238,-2.959 16.851,-3.655 25.493,-4.625 4.538,-0.51 9.129,-3.055 13.08,-5.625 5.034,-3.273 9.368,-7.604 14.147,-11.292 4.977,-3.841 10.127,-7.454 15.195,-11.175 0.94,-0.688 1.856,-1.411 3.352,-2.551 -2.78,-4.709 -5.22,-9.522 -8.288,-13.896 -6.944,-9.902 -12.273,-20.535 -16.541,-31.849 -1.553,-4.117 -4.997,-7.52 -7.571,-11.254 -5.668,-8.226 -8.806,-17.054 -6.333,-27.165 1.314,-5.374 3.201,-10.656 3.977,-16.102 0.955,-6.707 1.479,-13.337 -0.739,-20.257 -3.716,-11.595 -5.982,-23.646 -9.358,-35.359 -1.6,-5.547 1.628,-9.292 3.839,-13.256 4.913,-8.806 10.481,-17.243 15.699,-25.882 3.135,-5.189 6.236,-10.407 9.125,-15.735 2.914,-5.374 5.079,-11.034 5.283,-17.278 0.03,-0.938 0.275,-1.911 0.624,-2.786 3.636,-9.153 5.612,-18.981 10.828,-27.479 2.709,-4.416 6.911,-7.407 11.46,-9.694 6.513,-3.274 12.107,-7.617 17.052,-12.945 2.484,-2.675 5.336,-5.011 8.045,-7.475 3.198,-2.905 4.836,-6.562 5.996,-10.704 3.099,-11.07 6.748,-21.942 13.381,-31.549 3.234,-4.684 8.487,-6.221 13.083,-8.793 1.101,-0.616 2.425,-0.834 3.523,-1.452 9.938,-5.591 19.206,-4.202 27.696,2.923 2.817,2.364 5.048,5.424 7.576,8.139 0.658,0.706 1.407,1.333 2.148,1.955 3.52,2.956 7.06,5.887 10.568,8.857 0.479,0.406 0.935,0.925 1.202,1.487 3.085,6.496 6.014,13.07 9.257,19.485 1.034,2.046 2.777,3.774 4.372,5.485 1.768,1.896 1.847,3.574 1.354,6.281 -1.721,9.455 -10.252,12.763 -15.899,18.594 -1.316,1.359 -4.252,1.479 -6.467,1.572 -5.222,0.216 -10.478,0.349 -15.684,-0.011 -4.54,-0.313 -9.028,-1.364 -13.544,-2.052 -1.679,-0.252 -3.375,-0.407 -5.554,-0.666 z" /><path
     style="clip-rule:evenodd;fill-rule:evenodd;fill:#ffffff;fill-opacity:1;stroke:#000000;stroke-opacity:1"
     inkscape:connector-curvature="0"
     id="path11"
     d="m 181.007,413.777 c -0.474,4.752 -1.102,9.495 -1.392,14.258 -0.746,12.243 -1.259,24.502 -2.028,36.746 -0.483,7.695 -1.217,15.378 -1.92,23.059 -0.571,6.229 -1.324,12.442 -1.883,18.673 -0.43,4.789 0.567,5.899 5.062,7.775 9.511,3.972 18.964,8.088 28.382,12.277 3.604,1.604 3.769,3.158 1.021,5.856 -0.215,0.212 -0.557,0.389 -0.623,0.641 -1.822,6.911 -7.94,7.4 -13.346,9.193 -6.388,2.117 -12.949,2.26 -19.448,1.781 -9.663,-0.712 -19.692,0.303 -28.766,-3.955 -3.892,-1.827 -7.183,-4.966 -10.641,-7.646 -0.531,-0.412 -0.713,-1.583 -0.668,-2.381 0.418,-7.449 -2.754,-14.149 -4.291,-21.188 -1.859,-8.515 -3.704,-17.031 -5.485,-25.561 -0.977,-4.674 -1.963,-9.354 -2.671,-14.074 -0.794,-5.286 -1.114,-10.644 -1.948,-15.923 -0.73,-4.629 -1.886,-9.189 -2.854,-13.779 -0.349,-0.017 -0.696,-0.032 -1.044,-0.049 -2.369,4.349 -4.465,8.873 -7.17,13.001 -3.833,5.851 -7.638,11.841 -12.325,16.976 -5.642,6.181 -11.974,11.793 -18.413,17.166 -7.019,5.855 -14.381,11.327 -21.829,16.639 -4.825,3.439 -10.018,6.381 -15.157,9.351 -1.672,0.967 -2.183,1.796 -1.227,3.524 2.729,4.936 5.339,9.937 8.099,14.852 1.186,2.114 3.202,2.664 5.587,2.785 7.656,0.386 13.818,3.357 17.08,10.764 1.247,2.832 -0.271,4.945 -3.227,4.798 -9.562,-0.476 -19.125,-1.028 -28.57,1.31 C 29.8,553 25.377,548.577 22.25,540.835 c -2.029,-5.024 -3.759,-10.184 -6.068,-15.071 -1.011,-2.143 -3.042,-3.847 -4.77,-5.594 -2.118,-2.142 -4.91,-3.804 -6.442,-6.274 -1.072,-1.729 -1.291,-4.771 -0.526,-6.68 1.308,-3.265 3.233,-6.55 5.698,-9.034 7.443,-7.503 15.292,-14.601 22.934,-21.906 2.083,-1.992 3.759,-4.473 6.026,-6.196 7.624,-5.796 15.351,-11.467 23.209,-16.939 2.87,-1.999 3.927,-4.623 4.093,-7.763 0.35,-6.623 -1.235,-12.949 -3.718,-19.004 -0.624,-1.521 -2.385,-2.615 -3.715,-3.803 -4.049,-3.613 -8.231,-7.081 -12.181,-10.798 -2.057,-1.937 -4.004,-4.106 -5.519,-6.479 -2.401,-3.759 -4.604,-7.682 -6.45,-11.733 -0.622,-1.367 -0.218,-3.436 0.251,-5.024 3.054,-10.356 7.662,-20.044 13.547,-29.059 3.777,-5.785 7.982,-11.304 12.212,-16.775 4.632,-5.991 9.181,-12.104 14.367,-17.594 7.013,-7.427 14.473,-14.445 21.976,-21.386 7.003,-6.48 14.07,-12.934 21.544,-18.849 11.02,-8.72 21.155,-18.679 34.215,-24.637 9.012,-4.114 17.863,-8.586 26.725,-13.022 6.675,-3.34 13.723,-3.525 20.697,-2.001 5.146,1.126 9.22,-0.686 13.414,-2.857 4.067,-2.105 7.891,-5.013 12.199,-6.221 3.742,-1.047 8.084,-0.688 12.032,-0.091 5.343,0.808 10.533,2.583 15.843,3.675 6.064,1.248 10.432,5.021 13.555,9.849 1.733,2.678 1.942,6.446 2.445,9.783 0.476,3.167 2.346,5.109 4.941,6.284 8.599,3.895 10.014,7.444 8.921,18.379 -0.085,0.859 0.002,1.743 -0.144,2.591 -0.814,4.732 -2.586,8.38 -8.322,8.531 -4.042,0.106 -8.069,0.791 -12.1,1.241 -2.967,0.331 -5.922,0.823 -8.897,1.004 -1.88,0.113 -3.804,-0.102 -5.679,-0.373 -3.57,-0.518 -7.112,-1.546 -10.677,-1.599 -1.37,-0.021 -3.762,1.87 -3.991,3.186 -1.126,6.485 -5.172,11.175 -9.13,15.867 -2.517,2.981 -5.63,5.475 -8.57,8.083 -2.177,1.932 -3.525,4.007 -2.456,7.051 0.277,0.789 0.3,1.701 0.287,2.553 -0.19,12.806 1.271,25.461 3.181,38.101 0.799,5.29 0.633,10.717 1.162,16.057 0.817,8.252 1.632,16.514 2.859,24.711 1.26,8.414 2.555,16.875 4.692,25.091 1.801,6.921 5.072,13.442 7.254,20.28 2.544,7.97 4.792,16.048 6.816,24.165 1.23,4.937 3.108,10.256 2.315,15.006 -0.885,5.307 0.295,10.351 -0.212,15.499 -0.247,2.512 0.485,5.103 0.577,7.666 0.082,2.289 0.376,4.743 -0.302,6.84 -0.816,2.525 -3.821,1.542 -5.787,2.193 -3.589,1.19 -7.441,1.559 -11.102,2.569 -4.948,1.367 -8.117,-0.856 -8.088,-6.736 0.033,-6.862 0.808,-13.72 1.136,-20.586 0.147,-3.084 -0.27,-6.21 0.028,-9.272 0.72,-7.425 -1.197,-14.163 -4.389,-20.774 -3.94,-8.16 -7.396,-16.555 -11.347,-24.709 -2.125,-4.382 -4.845,-8.476 -7.307,-12.693 -3.65,-6.25 -7.293,-12.504 -10.983,-18.731 -0.689,-1.161 -1.59,-2.199 -2.392,-3.294 -0.377,0.079 -0.753,0.161 -1.13,0.244 z m -29.574,-33.748 c -0.335,-0.302 -0.67,-0.601 -1.005,-0.902 -4.469,1.739 -8.946,3.458 -13.376,5.293 -0.179,0.074 -0.155,1.472 0.202,1.878 3.347,3.812 6.789,7.539 10.598,11.728 1.22,-6.139 2.4,-12.068 3.581,-17.997 z" /><g
     id="g13"
     style="fill:#ffffff;fill-opacity:1;stroke:#000000;stroke-opacity:1"><path
       style="clip-rule:evenodd;fill-rule:evenodd;fill:#ffffff;fill-opacity:1;stroke:#000000;stroke-opacity:1"
       inkscape:connector-curvature="0"
       id="path15"
       d="m 932.611,356.061 c -1.418,6.213 -2.413,11.74 -3.96,17.108 -2.554,8.857 -5.068,17.764 -8.347,26.365 -2.903,7.618 -7.41,14.11 -15.473,17.718 -3.683,1.648 -6.838,4.78 -9.797,7.684 -6.201,6.085 -12.483,12.157 -18.027,18.821 -4.178,5.021 -7.385,10.878 -10.801,16.498 -6.259,10.299 -11.842,20.931 -16.083,32.266 -2.044,5.464 -1.59,10.993 -1.269,16.477 0.287,4.887 4.779,7.408 7.817,10.529 3.093,3.177 6.641,6.252 10.572,8.182 3.986,1.957 8.67,2.525 13.079,3.571 1.864,0.441 3.853,0.362 5.705,0.832 5.58,1.416 5.875,8.715 2.808,11.266 -3.432,2.855 -7.396,5.08 -11.178,7.501 -0.548,0.351 -1.401,0.467 -2.062,0.364 -6.292,-0.973 -12.542,-2.339 -18.864,-2.96 -9.113,-0.896 -17.766,-3.355 -26.112,-6.887 -5.065,-2.142 -10.131,-4.501 -14.73,-7.483 -8.309,-5.385 -8.849,-14.477 -2.923,-21.813 3.813,-4.723 5.938,-10.159 7.141,-16.099 2.023,-10 4.142,-19.988 6.554,-29.898 2.565,-10.531 5.442,-20.984 8.326,-31.434 2.333,-8.458 7.593,-15.193 13.303,-21.596 4.255,-4.772 9.095,-9.102 12.816,-14.245 4.73,-6.539 6.687,-14.409 8.44,-22.232 1.115,-4.973 2.482,-9.894 3.458,-14.891 2.184,-11.183 3.007,-22.467 0.174,-33.619 -2.034,-8.018 -5.527,-15.712 -7.065,-23.797 -1.64,-8.641 -4.011,-17.428 -1.887,-26.417 1.167,-4.946 2.126,-9.955 3.6,-14.805 0.752,-2.48 2.216,-4.828 3.729,-6.975 5.458,-7.731 8.514,-16.509 10.849,-25.494 1.417,-5.452 2.346,-11.185 2.411,-16.803 0.113,-9.67 -0.142,-19.4 -1.157,-29.009 -0.732,-6.928 -3.229,-13.649 -4.426,-20.552 -1.367,-7.879 -2.253,-15.845 -3.167,-23.795 -0.443,-3.843 -0.676,-7.736 -0.647,-11.603 0.056,-7.152 2.405,-13.778 4.919,-20.39 3.902,-10.266 11.124,-17.513 20.215,-23.196 2.253,-1.409 4.608,-2.703 6.679,-4.347 5.129,-4.072 6.094,-9.647 4.918,-15.685 -1.277,-6.559 -3.087,-13.02 -4.211,-19.6 -1.166,-6.829 0.536,-13.297 3.992,-19.229 4.161,-7.146 9.59,-13.45 16.499,-17.789 8.613,-5.411 18.3,-6.138 28.136,-3.089 5.348,1.656 10.807,3.003 16.049,4.94 9.308,3.441 14.292,11.124 16.967,19.987 1.133,3.755 -0.508,8.311 -0.699,12.511 -0.141,3.091 0.011,6.196 0.059,9.295 0.026,1.716 0.743,3.759 0.055,5.092 -2.828,5.479 -1.123,11.47 -2.393,17.101 -1.354,6.003 -1.538,12.232 -4.459,17.914 -1.616,3.147 -4.088,4.048 -7.135,4.606 -4.285,0.786 -8.542,1.713 -12.812,2.579 -2.46,0.5 -2.647,1.721 -1.662,3.914 5.938,13.215 11.772,26.478 17.573,39.753 0.843,1.93 1.037,4.173 2.025,6.004 1.687,3.13 3.571,6.196 5.715,9.028 5.143,6.8 10.397,13.519 15.784,20.126 2.246,2.755 4.882,5.209 7.489,7.641 0.465,0.433 1.885,0.426 2.477,0.037 3.018,-1.983 5.906,-4.164 8.846,-6.265 6.49,-4.644 12.984,-9.286 19.482,-13.917 0.24,-0.173 0.562,-0.233 0.568,-0.976 -2.852,-0.54 -5.695,-1.118 -8.555,-1.606 -1.779,-0.303 -2.043,-1.152 -1.406,-2.738 5.354,-13.3 10.742,-26.586 15.957,-39.938 4.404,-11.271 8.564,-22.636 12.879,-33.941 2.574,-6.744 5.328,-13.419 7.852,-20.18 3.811,-10.204 7.494,-20.456 11.617,-31.749 1.506,2.863 2.646,4.824 3.594,6.873 6.529,14.096 13.029,28.206 19.508,42.325 1.729,3.771 3.467,7.545 4.953,11.414 0.377,0.983 0,2.395 -0.375,3.493 -0.648,1.906 -1.32,3.885 -2.42,5.542 -3.271,4.937 -0.457,8.888 1.969,12.782 3.352,5.38 1.748,10.298 -2.1,13.482 -1.605,1.326 -3.686,2.889 -4.105,4.684 -1.291,5.506 -5.559,8.408 -9.188,11.924 -6.295,6.098 -12.715,12.073 -18.895,18.288 -10.479,10.539 -20.971,21.071 -31.139,31.906 -5.854,6.238 -11.164,12.996 -16.562,19.646 -3.605,4.437 -7.66,8.085 -13.621,8.468 -1.869,0.121 -4.013,-0.38 -5.672,-1.268 -7.51,-4.018 -14.89,-8.277 -22.972,-12.816 -1.105,5.334 -1.955,9.994 -3.052,14.594 -2.093,8.781 -4.019,17.618 -6.584,26.263 -2.533,8.534 -5.919,16.809 -8.566,25.311 -0.542,1.736 -0.023,4.312 0.954,5.926 6.95,11.472 13.894,22.958 21.347,34.103 4.97,7.431 10.681,14.377 16.225,21.41 7.535,9.56 15.289,18.946 22.83,28.498 5.35,6.775 6.697,14.356 5.361,22.964 -1.275,8.212 0.189,16.449 2.762,24.396 4.576,14.139 8.902,28.363 13.826,42.38 3.582,10.202 7.957,20.127 11.979,30.177 1.684,4.202 5.119,6.682 9.119,7.959 7.473,2.382 15.023,4.678 22.705,6.16 4.049,0.782 8.545,0.276 12.656,-0.55 7.029,-1.411 13.83,-0.864 20.57,1.06 1.631,0.465 3.232,1.692 4.393,2.98 2.152,2.39 1.631,4.624 -0.889,6.556 -7.188,5.521 -15.561,8.215 -24.266,9.813 -7.275,1.337 -14.301,2.853 -20.699,6.96 -3.881,2.492 -9.096,3.143 -12.547,6.019 -5.207,4.341 -11.176,5.409 -17.258,5.812 -9.148,0.605 -15.42,-4.22 -17.744,-13.062 -4.582,-17.443 -11.74,-33.461 -22.578,-48.123 -7.867,-10.641 -14.216,-22.463 -20.622,-34.098 -4.104,-7.454 -5.573,-15.871 -5.829,-24.43 -0.125,-4.194 -0.04,-8.457 -0.8,-12.55 -0.385,-2.067 -2.23,-4.022 -3.782,-5.687 -3.657,-3.916 -7.428,-7.738 -11.351,-11.389 -3.447,-3.21 -7.175,-6.113 -10.751,-9.183 -6.292,-5.404 -12.94,-10.375 -17.854,-17.292 -2.187,-3.077 -5.514,-5.345 -8.757,-8.388 z" /><path
       style="clip-rule:evenodd;fill-rule:evenodd;fill:#ffffff;fill-opacity:1;stroke:#000000;stroke-opacity:1"
       inkscape:connector-curvature="0"
       id="path17"
       d="m 1067.785,57.917 c -12.779,32.255 -25.092,63.33 -37.59,94.876 -6.926,-1.665 -13.869,-3.334 -21.176,-5.09 2.115,-7.434 4.125,-14.34 6.045,-21.271 4.619,-16.685 9.201,-33.382 13.791,-50.075 1.52,-5.535 3.1,-11.056 4.506,-16.619 0.664,-2.626 2.469,-2.602 4.492,-2.398 1.807,0.181 3.611,0.537 5.42,0.551 7.872,0.061 15.745,0.026 24.512,0.026 z" /></g><path
     style="clip-rule:evenodd;fill:#ffffff;fill-opacity:1;fill-rule:evenodd;stroke:#000000;stroke-opacity:1"
     inkscape:connector-curvature="0"
     id="path7"
     d="m 727.24,331.471 c 0.927,-4.853 2.638,-8.74 5.974,-12.152 1.166,-1.191 1.007,-4.331 0.528,-6.363 -1.994,-8.487 -6.462,-15.522 -12.497,-21.906 -5.245,-5.551 -9.49,-12.041 -14.257,-18.053 -4.503,-5.683 -9.11,-11.286 -14.23,-17.615 -1.415,3 -2.634,4.958 -3.283,7.089 -1.482,4.871 -2.522,9.877 -4.052,14.73 -1.26,3.996 -3.312,7.759 -4.4,11.79 -1.802,6.673 -3.09,13.482 -4.636,20.227 -0.59,2.574 -1.638,5.093 -1.875,7.692 -0.606,6.634 2.688,12.163 5.609,17.75 3.543,6.775 6.968,13.62 10.713,20.28 2.758,4.903 6.231,9.413 8.884,14.366 4.166,7.773 7.898,15.779 11.839,23.676 0.664,1.331 1.365,2.661 2.211,3.88 2.874,4.149 4.704,8.489 4.336,13.765 -0.259,3.74 0.312,7.544 0.588,11.313 0.385,5.223 0.715,10.455 1.29,15.659 0.902,8.178 1.989,16.333 2.993,24.498 0.734,5.947 1.277,11.926 2.24,17.834 0.974,5.984 2.347,11.904 3.572,17.847 0.278,1.352 0.573,2.709 1.01,4.014 0.94,2.803 2.213,5.123 4.744,7.197 7.451,6.104 15.166,11.776 23.821,15.951 3.975,1.916 8.435,2.953 12.776,3.955 4.292,0.988 8.307,2.29 11.768,5.143 1.124,0.927 2.596,1.522 4,1.995 2.484,0.839 2.974,2.22 2.018,4.629 -1.912,4.821 -5.896,7.796 -10.078,9.906 -2.313,1.17 -5.861,0.146 -8.808,-0.243 -5.277,-0.695 -10.515,-1.679 -15.777,-2.501 -9.7,-1.515 -19.139,0.882 -28.694,1.764 -3.149,0.29 -6.426,-1.19 -9.678,-1.517 -4.343,-0.433 -4.15,-3.592 -4.381,-6.594 -0.43,-5.567 -0.965,-11.129 -1.24,-16.704 -0.337,-6.801 -3.781,-12.408 -7.044,-17.945 -7.183,-12.187 -14.994,-24.004 -22.112,-36.227 -2.59,-4.448 -3.692,-9.585 -2.859,-15.02 0.625,-4.077 0.584,-8.264 0.727,-12.403 0.264,-7.651 0.396,-15.305 0.688,-22.954 0.12,-3.119 -0.727,-5.684 -2.538,-8.332 -4.467,-6.532 -8.394,-13.407 -14.491,-18.716 -3.91,-3.403 -7.469,-7.212 -11.414,-11.062 -0.236,0.491 -0.612,1.169 -0.895,1.884 -4.751,12.066 -9.026,24.35 -14.409,36.125 -3.148,6.888 -8.011,13.001 -12.196,19.4 -2.964,4.531 -5.834,9.158 -9.201,13.379 -3.441,4.313 -7.234,8.396 -11.234,12.2 -6.104,5.804 -12.69,11.104 -18.757,16.946 -6.153,5.929 -9.045,13.609 -10.139,21.952 -0.163,1.239 0.582,2.685 1.158,3.917 3.159,6.763 6.299,13.625 11.899,18.751 2.951,2.701 6.684,4.528 9.893,6.975 3.147,2.399 6.24,4.92 9.06,7.69 3.362,3.304 1.675,9.153 -2.986,9.62 -5.72,0.574 -11.537,0.21 -17.312,0.2 -1.834,-0.003 -3.694,-10e-4 -5.497,-0.284 -5.479,-0.856 -9.646,-3.895 -13.474,-7.804 -1.859,-1.899 -4.475,-3.242 -6.976,-4.291 -5.692,-2.39 -11.613,-4.238 -17.274,-6.69 -4.814,-2.085 -5.602,-7.262 -7.331,-11.467 -0.464,-1.129 1.364,-3.193 2.125,-4.835 2.857,-6.156 5.878,-12.244 8.516,-18.494 2.716,-6.438 5.279,-12.96 7.491,-19.583 1.775,-5.32 3.036,-10.823 4.323,-16.292 1.635,-6.938 3.267,-13.89 4.524,-20.904 1.083,-6.041 4.075,-10.548 9.104,-13.94 4.048,-2.731 8.284,-5.321 11.838,-8.62 5.363,-4.977 10.24,-10.48 15.223,-15.854 0.632,-0.683 0.959,-1.949 0.908,-2.919 -0.337,-6.479 -1.288,-12.962 -1.147,-19.425 0.272,-12.689 1.736,-25.38 1.513,-38.05 -0.136,-7.725 -1.462,-15.816 -7.516,-21.806 -3.884,-3.844 -4.935,-8.646 -5.907,-13.788 -1.862,-9.855 2.395,-18.081 6.002,-26.589 1.681,-3.966 3.105,-8.048 4.483,-12.135 1.009,-2.993 1.933,-6.04 2.572,-9.13 1.188,-5.745 -1.035,-10.727 -4.517,-14.977 -3.237,-3.95 -4.802,-7.867 -4.016,-13.13 1.281,-8.571 1.723,-17.266 2.798,-25.874 0.527,-4.213 1.762,-8.333 2.537,-12.521 1.357,-7.333 2.526,-14.699 3.924,-22.022 1.316,-6.888 2.82,-13.738 4.251,-20.601 0.955,-4.573 1.855,-9.157 2.91,-13.705 1.179,-5.09 3.573,-9.631 7.277,-13.285 10.007,-9.872 17.939,-21.265 24.786,-33.444 1.975,-3.512 3.184,-7.447 5.043,-11.032 2.243,-4.324 4.495,-8.709 7.36,-12.616 1.377,-1.877 4.127,-2.799 6.337,-4.004 2.986,-1.628 6.119,-2.995 9.063,-4.692 2.886,-1.663 5.533,-2.849 9.206,-2.193 10.395,1.856 20.908,3.023 31.333,4.729 4.226,0.692 7.553,2.903 9.553,7.093 0.958,2.005 2.876,3.651 4.618,5.16 2.278,1.97 3.917,5.786 2.636,8.577 -3.087,6.739 -2.523,13.875 -2.761,20.937 -0.025,0.717 0.249,1.477 0.513,2.165 1.237,3.219 1.08,6.286 -0.801,9.238 -0.513,0.806 -1.054,1.662 -1.276,2.57 -0.763,3.11 -3.167,3.821 -5.81,3.979 -5.272,0.315 -10.552,0.562 -15.833,0.639 -2.097,0.031 -3.146,0.72 -2.823,2.823 0.92,6.001 1.541,12.081 2.979,17.96 1.914,7.827 4.19,15.598 6.858,23.201 2.471,7.041 1.096,13.556 -1.822,19.831 -3.842,8.259 -3.819,16.552 -2.381,25.349 1.485,9.084 4.312,17.596 8.778,25.493 3.972,7.022 8.512,13.74 13.053,20.422 6.384,9.397 12.852,18.744 19.559,27.909 5.854,8.001 10.423,16.621 12.885,26.178 1.079,4.187 0.403,8.803 1.295,13.062 1.849,8.811 -2.389,16.246 -4.983,23.981 -2.19,6.523 -7.598,8.935 -14.389,7.37 -3.566,-0.823 -7.43,-1.194 -10.549,-2.893 -4.151,-2.263 -6.951,-6.282 -8.454,-10.837 -0.686,-2.083 -0.791,-4.474 -0.636,-6.688 0.138,-1.963 0.201,-4.843 3.745,-3.138 0.258,0.123 0.703,0.106 0.948,-0.039 2.358,-1.395 3.569,-0.289 4.44,2.243 z" /></svg>